M48
INCH
T01C0.022
T02C0.0354
T03C0.038
T04C0.0394
T05C0.0433
T06C0.046
T07C0.046
T08C0.0591
T09C0.063
%
T01
X+025940Y+022440
X+024440Y+021440
X+024440Y+024440
X+028940Y+022440
T02
X+026940Y+029940
X+026940Y+028940
X+026940Y+027940
X+026940Y+026940
X+029940Y+026940
X+029940Y+027940
X+029940Y+028940
X+029940Y+029940
X+022440Y+030440
X+022440Y+031440
X+019440Y+028440
X+019440Y+027440
X+019440Y+026440
X+019440Y+025440
X+016440Y+025440
X+016440Y+026440
X+016440Y+027440
X+016440Y+028440
X+013440Y+029940
X+013440Y+030940
X+010940Y+030940
X+010940Y+029940
X+010940Y+020940
X+010940Y+019940
X+010940Y+018940
X+010940Y+017940
X+007940Y+017940
X+007940Y+018940
X+007940Y+019940
X+007940Y+020940
X+007440Y+014440
X+007440Y+013440
X+008440Y+009440
X+006440Y+009440
X+010440Y+004940
X+011440Y+004940
X+034440Y+008940
X+034440Y+009940
T03
X+021940Y+023940
X+020940Y+022940
X+021940Y+021940
X+020440Y+019940
X+016440Y+019940
X+016440Y+020940
X+015440Y+021940
X+015440Y+022940
X+016940Y+022940
X+016440Y+017940
X+012440Y+017940
X+011440Y+021940
X+010940Y+027440
X+018940Y+030440
X+023940Y+031940
X+024440Y+029440
X+027940Y+031940
X+029940Y+031940
X+030440Y+030940
X+033440Y+031440
X+033440Y+027440
X+034940Y+026940
X+031940Y+024940
X+029940Y+025940
X+029940Y+021940
X+024940Y+019440
X+033940Y+012440
X+032440Y+005440
X+022940Y+006440
X+016440Y+008440
X+014440Y+013440
X+009940Y+014440
X+009440Y+011940
X+007440Y+011440
T04
X+024440Y+026940
X+024440Y+025940
X+021440Y+026940
X+021440Y+027940
X+015940Y+029940
X+015940Y+030940
X+013440Y+026940
X+013440Y+025940
X+010440Y+023940
X+009440Y+023940
X+006940Y+021440
X+006940Y+020440
X+005940Y+017940
X+005940Y+015440
X+011440Y+012940
X+012440Y+012940
X+005940Y+004940
X+021940Y+018940
X+021940Y+019940
X+031440Y+019440
X+032440Y+019440
X+034440Y+015440
X+037940Y+017940
X+031940Y+028940
X+031940Y+029940
X+037940Y+031940
X+034440Y+004940
X+005940Y+031940
T05
X+016940Y+013440
X+016940Y+012440
X+016940Y+011440
T06
X+006940Y+007440
X+014440Y+005440
T07
X+012940Y+007440
X+014440Y+011440
T08
X+019440Y+010440
X+019440Y+008294
X+019440Y+006149
T09
X+022940Y+012940
X+022940Y+008649
T00
M30
